{
  "project_info": {
    "project_number": "739348681482",
    "project_id": "harsa-owner",
    "storage_bucket": "harsa-owner.appspot.com"
  },
  "client": [
    {
      "client_info": {
        "mobilesdk_app_id": "1:739348681482:android:a17e83669cde17584560f3",
        "android_client_info": {
          "package_name": "com.smartersvision.markets_owner"
        }
      },
      "oauth_client": [
        {
          "client_id": "739348681482-tvlirgkitsf1o310nnq141u2e1oamsem.apps.googleusercontent.com",
          "client_type": 3
        }
      ],
      "api_key": [
        {
          "current_key": "AIzaSyAHibF5YIe-sVv2qZJMpzUgsmYGcUuO7qk"
        }
      ],
      "services": {
        "appinvite_service": {
          "other_platform_oauth_client": [
            {
              "client_id": "739348681482-tvlirgkitsf1o310nnq141u2e1oamsem.apps.googleusercontent.com",
              "client_type": 3
            }
          ]
        }
      }
    }
  ],
  "configuration_version": "1"
}